{
  "body": {
    "issuer": "fa7f9ee43aff70c879f80fa7fd15955c18b98c72310b09e7818310325050cf7a",
    "uport_id": "0xf28c10ca43c1f68af4709f74e2934c100435806d",
    "expiry": "never",
    "description": "print <3 Rust?",
    "is_promise": 0
  },
  "protocol_version": 0,
  "service_id": 1,
  "message_id": 0,
  "signature":"a30c707962f28de175fdae210c03461f5a5f32e2a5583dea6c59fd1161ee88c5990c655e037f16774fa17d6f91531dd15eeab5549f583ab3cf03fdd9b0d1930e"
}
